Nested analyses • tidypaleo
…
      Source: vignettes/nested_analysis.Rmd
      nested_analysis.Rmd

Load the packages:

library(tidyverse)
library(tidypaleo)

Creating nested data

Preparing the data:

alta_lake_geochem
#> # A tibble: 192 x 9
#>    location param depth   age value stdev units     n zone  
#>    <chr>    <chr> <dbl> <dbl> <dbl> <dbl> <chr> <int> <chr> 
#>  1 ALGC2    Cu     0.25 2015.  76   NA    ppm       1 Zone 3
#>  2 ALGC2    Cu     0.75 2011. 108.   4.50 ppm       3 Zone 3
#>  3 ALGC2    Cu     1.25 2008. 158   NA    ppm       1 Zone 3
#>  4 ALGC2    Cu     1.75 2003. 169   NA    ppm       1 Zone 3
#>  5 ALGC2    Cu     2.5  1998. 161   NA    ppm       1 Zone 3
#>  6 ALGC2    Cu     3.5  1982. 129   NA    ppm       1 Zone 3
#>  7 ALGC2    Cu     4.5  1966.  88.7  3.86 ppm       3 Zone 2
#>  8 ALGC2    Cu     5.5  1947.  65   NA    ppm       1 Zone 2
#>  9 ALGC2    Cu     6.5  1922.  62.3  9.53 ppm       3 Zone 2
#> 10 ALGC2    Cu     7.5  1896.  48   NA    ppm       1 Zone 2
#> # … with 182 more rows
…
alta_nested
#> # A tibble: 1 x 4
#>   discarded_columns discarded_rows   qualifiers        data             
#> * <list>            <list>           <list>            <list>           
#> 1 <tibble [32 × 0]> <tibble [0 × 9]> <tibble [32 × 4]> <tibble [32 × 6]>

alta_nested %>% unnested_data(data)
#> # A tibble: 32 x 6
#>     C[,1] `C/N`[,1] Cu[,1] d13C[,1] d15N[,1] Ti[,1]
#>     <dbl>     <dbl>  <dbl>    <dbl>    <dbl>  <dbl>
#>  1 -1.54      1.26  -0.794    1.03   -0.670   0.807
#>  2 -1.59      1.36  -0.559    1.19    0.0499  1.33 
#>  3 -1.98      0.960 -0.721    1.10   -0.511   0.682
#>  4 -0.189     1.61  -0.749    0.836  -2.37    0.233
#>  5  0.993     2.48  -0.694    1.06   -2.55    0.908
#>  6 -0.157     1.76  -0.712    1.17   -1.52    0.941
#>  7 -0.642     1.36  -0.667    1.07   -1.39    1.14 
#>  8 -1.07      0.924 -0.559    0.820  -0.439   1.16 
#>  9 -0.722     0.696 -0.830    0.765  -0.929   0.932
#> 10 -0.631     0.309 -0.504    0.409  -0.166   0.882
#> # … with 22 more rows
alta_nested %>% unnested_data(qualifiers, data)
#> # A tibble: 32 x 10
#>      age depth zone  row_number  C[,1] `C/N`[,1] Cu[,1] d13C[,1] d15N[,1] Ti[,1]
#>    <dbl> <dbl> <chr>      <int>  <dbl>     <dbl>  <dbl>    <dbl>    <dbl>  <dbl>
#>  1 1550   29.5 Zone…          1 -1.54      1.26  -0.794    1.03   -0.670   0.807
#>  2 1566.  28.5 Zone…          2 -1.59      1.36  -0.559    1.19    0.0499  1.33 
#>  3 1581.  27.5 Zone…          3 -1.98      0.960 -0.721    1.10   -0.511   0.682
#>  4 1597.  26.5 Zone…          4 -0.189     1.61  -0.749    0.836  -2.37    0.233
#>  5 1613.  25.5 Zone…          5  0.993     2.48  -0.694    1.06   -2.55    0.908
#>  6 1629.  24.5 Zone…          6 -0.157     1.76  -0.712    1.17   -1.52    0.941
#>  7 1644.  23.5 Zone…          7 -0.642     1.36  -0.667    1.07   -1.39    1.14 
#>  8 1660.  22.5 Zone…          8 -1.07      0.924 -0.559    0.820  -0.439   1.16 
#>  9 1676.  21.5 Zone…          9 -0.722     0.696 -0.830    0.765  -0.929   0.932
#> 10 1692.  20.5 Zone…         10 -0.631     0.309 -0.504    0.409  -0.166   0.882
#> # … with 22 more rows
…
pca %>% unnested_data(qualifiers, scores)
#> # A tibble: 32 x 10
#>      age depth zone   row_number   PC1     PC2     PC3     PC4     PC5     PC6
#>    <dbl> <dbl> <chr>       <int> <dbl>   <dbl>   <dbl>   <dbl>   <dbl>   <dbl>
#>  1 1550   29.5 Zone 1          1 -2.48 -0.273   0.409   0.518   0.316  -0.0538
#>  2 1566.  28.5 Zone 1          2 -2.48 -0.675   0.902   0.561  -0.364  -0.190 
#>  3 1581.  27.5 Zone 1          3 -2.41 -0.721   0.576   0.465   0.619  -0.184 
#>  4 1597.  26.5 Zone 1          4 -2.39  1.73   -0.527   0.197   0.742   0.0656
#>  5 1613.  25.5 Zone 1          5 -2.73  2.82   -0.666   0.212  -0.432   0.0715
#>  6 1629.  24.5 Zone 1          6 -2.56  1.22   -0.155   0.235  -0.208  -0.105 
#>  7 1644.  23.5 Zone 1          7 -2.57  0.708   0.123  -0.0210 -0.0114  0.0286
#>  8 1660.  22.5 Zone 1          8 -2.04 -0.243   0.490   0.101  -0.157   0.0834
#>  9 1676.  21.5 Zone 1          9 -1.98  0.0702 -0.0657 -0.147   0.0813  0.186 
#> 10 1692.  20.5 Zone 1         10 -1.20 -0.376   0.202  -0.132  -0.202   0.220 
#> # … with 22 more rows
…
Constrained hierarchical clustering

keji_nested <- keji_lakes_plottable %>%
  group_by(location) %>%
  nested_data(qualifiers = depth, key = taxon, value = rel_abund)

keji_nested %>% unnested_data(qualifiers, data)
#> # A tibble: 37 x 9
#>    location  depth row_number `Asterionella r… `Aulacoseira di… `Aulacoseira li…
#>    <chr>     <dbl>      <int>            <dbl>            <dbl>            <dbl>
#>  1 Beaversk… 0.125          1            0                 3.02             1.72
#>  2 Beaversk… 0.375          2            0                 3.25             2.03
#>  3 Beaversk… 0.825          3            1.32              0                2.32
#>  4 Beaversk… 2.12           4            0.333             0                2.67
#>  5 Beaversk… 3.12           5            0                 0                5.32
#>  6 Beaversk… 4.12           6            0                 0                3.54
#>  7 Beaversk… 5.38           7            0.987             0               10.2 
#>  8 Beaversk… 6.38           8            0.993             0                8.94
#>  9 Beaversk… 7.62           9            1.63              0                8.82
#> 10 Beaversk… 9.12          10            0.328             0               10.8 
#> # … with 27 more rows, and 3 more variables: Cyclotella stelligera <dbl>,
#> #   Tabellaria flocculosa (strain III) <dbl>, Other <dbl>
…
