Keji lakes core diatom counts — keji_lakes_plottable • tidypaleo
…
    Neotoma paleoecology database (https://neotomadb.org)

    References

    Ginn, Brian K., Brian F. Cumming, and John P. Smol. "Long-Term
Lake Acidification Trends in High- and Low-Sulphate Deposition Regions from
Nova Scotia, Canada." Hydrobiologia 586, no. 1 (July 1, 2007): 261-75.
doi: 10.1007/s10750-007-0644-3
.

    Examples

keji_lakes_plottable

#> # A tibble: 202 x 5
#>    location        depth taxon                                   count rel_abund
#>    <chr>           <dbl> <fct>                                   <dbl>     <dbl>
#>  1 Beaverskin Lake 0.125 Asterionella ralfsii var. americana (l…     0      0   
#>  2 Beaverskin Lake 0.125 Aulacoseira distans                         7      3.02
#>  3 Beaverskin Lake 0.125 Aulacoseira lirata                          4      1.72
#>  4 Beaverskin Lake 0.125 Cyclotella stelligera                       8      3.45
#>  5 Beaverskin Lake 0.125 Tabellaria flocculosa (strain III)          0      0   
#>  6 Beaverskin Lake 0.125 Other                                     213     91.8 
#>  7 Beaverskin Lake 0.375 Asterionella ralfsii var. americana (l…     0      0   
#>  8 Beaverskin Lake 0.375 Aulacoseira distans                         8      3.25
#>  9 Beaverskin Lake 0.375 Aulacoseira lirata                          5      2.03
#> 10 Beaverskin Lake 0.375 Cyclotella stelligera                      14      5.69
#> # … with 192 more rows
…
