Keji lakes core diatom counts — keji_lakes • tidypaleo
…
    References

    Ginn, Brian K., Brian F. Cumming, and John P. Smol. "Long-Term
Lake Acidification Trends in High- and Low-Sulphate Deposition Regions from
Nova Scotia, Canada." Hydrobiologia 586, no. 1 (July 1, 2007): 261-75.
https://doi.org/10.1007/s10750-007-0644-3.

    Examples

library(mudata2)
data(keji_lakes)

keji_lakes %>%
  tbl_data()
#> # A tibble: 6,363 x 9
#>    dataset location param  depth value neotoma_sample_… unit_name
#>    <chr>   <chr>    <chr>  <dbl> <dbl>            <int> <chr>    
#>  1 neotom… Peskawa… Acti…  0.125     1           166528 Peskawa …
#>  2 neotom… Peskawa… Acti…  0.375     0           166529 Peskawa …
#>  3 neotom… Peskawa… Acti…  2.38      2           166530 Peskawa …
#>  4 neotom… Peskawa… Acti…  3.82      1           166531 Peskawa …
#>  5 neotom… Peskawa… Acti…  5.12      0           166532 Peskawa …
#>  6 neotom… Peskawa… Acti…  6.38      1           166533 Peskawa …
#>  7 neotom… Peskawa… Acti…  7.38      1           166534 Peskawa …
#>  8 neotom… Peskawa… Acti…  8.38      0           166535 Peskawa …
#>  9 neotom… Peskawa… Acti…  9.38      2           166536 Peskawa …
#> 10 neotom… Peskawa… Acti… 10.1       0           166537 Peskawa …
#> # … with 6,353 more rows, and 2 more variables: neotoma_dataset_id <dbl>,
#> #   variable_units <chr>
…
