Nested Principal Components Analysis (PCA) — nested_prcomp • tidypaleo
…
# scores, requalified
nested_pca %>% unnest(c(qualifiers, scores))
#> # A tibble: 32 x 15
#>    discarded_colum… discarded_rows depth zone  row_number data  model variance
#>    <list>           <list>         <dbl> <chr>      <int> <lis> <lis> <list>  
#>  1 <tibble [32 × 0… <tibble [0 × …  0.25 Zone…          1 <tib… <prc… <tibble…
#>  2 <tibble [32 × 0… <tibble [0 × …  0.75 Zone…          2 <tib… <prc… <tibble…
#>  3 <tibble [32 × 0… <tibble [0 × …  1.25 Zone…          3 <tib… <prc… <tibble…
#>  4 <tibble [32 × 0… <tibble [0 × …  1.75 Zone…          4 <tib… <prc… <tibble…
#>  5 <tibble [32 × 0… <tibble [0 × …  2.5  Zone…          5 <tib… <prc… <tibble…
#>  6 <tibble [32 × 0… <tibble [0 × …  3.5  Zone…          6 <tib… <prc… <tibble…
#>  7 <tibble [32 × 0… <tibble [0 × …  4.5  Zone…          7 <tib… <prc… <tibble…
#>  8 <tibble [32 × 0… <tibble [0 × …  5.5  Zone…          8 <tib… <prc… <tibble…
#>  9 <tibble [32 × 0… <tibble [0 × …  6.5  Zone…          9 <tib… <prc… <tibble…
#> 10 <tibble [32 × 0… <tibble [0 × …  7.5  Zone…         10 <tib… <prc… <tibble…
#> # … with 22 more rows, and 7 more variables: loadings <list>, PC1 <dbl>,
#> #   PC2 <dbl>, PC3 <dbl>, PC4 <dbl>, PC5 <dbl>, PC6 <dbl>
…
