Alta Lake Lead-210 and Carbon-14 Ages — alta_lake_210Pb_ages • tidypaleo
…
#> # A tibble: 1 x 5
#>   core                      depth_cm age_14C age_error_14C type                 
#>   <chr>                        <dbl>   <dbl>         <dbl> <chr>                
#> 1 Dunnington et al. 2015 /…     29.5     340            30 Carbon-14 age / fir …
alta_lake_bacon_ages

#> # A tibble: 58 x 5
#>    depth_cm age_min_year_BP age_max_year_BP age_median_year_… age_weighted_mean…
#>  *    <dbl>           <dbl>           <dbl>             <dbl>              <dbl>
#>  1      1            -59.1           -57.1             -58.1              -58.1 
#>  2      1.5          -54.3           -52.4             -53.3              -53.3 
#>  3      2            -50.5           -46.7             -48.6              -48.6 
#>  4      2.5          -43.9           -37.1             -40.5              -40.5 
#>  5      3            -39.3           -25.8             -32.4              -32.4 
#>  6      3.5          -30.9           -17.8             -24.5              -24.4 
#>  7      4            -26.8            -4.42            -16.7              -16.3 
#>  8      4.5          -18.0             3.28             -7.79              -7.61
#>  9      5            -13.6            17.8               0.46               1.01
#> 10      5.5           -5.91           29.0               9.8               10.4 
#> # … with 48 more rows
…
