Long Lake Carbon-14 Ages — long_lake_14C_ages • tidypaleo
…
    Examples

long_lake_14C_ages

#> # A tibble: 5 x 5
#>   core                     depth_cm age_14C age_error_14C type                  
#>   <chr>                       <dbl>   <dbl>         <dbl> <chr>                 
#> 1 Dunnington et al. 2017 …      9       623            34 Carbon-14 age / twig …
#> 2 Dunnington et al. 2017 …     37.3     575            18 Carbon-14 age / plant 
#> 3 Dunnington et al. 2017 …     46      4396            55 Carbon-14 age / wood …
#> 4 Dunnington et al. 2017 …     70.5    8482            28 Carbon-14 age / wood  
#> 5 Dunnington et al. 2017 …     94      9148            49 Carbon-14 age / wood …
long_lake_bacon_ages

#> # A tibble: 86 x 5
#>    depth   min   max median wmean
#>    <dbl> <dbl> <dbl>  <dbl> <dbl>
#>  1     9  536.  667    598.  603.
#>  2    10  572.  942.   695.  714.
#>  3    11  583. 1263.   775.  822.
#>  4    12  637. 1378.   893.  928.
#>  5    13  669. 1580.   996. 1034.
#>  6    14  738. 1703.  1112. 1144.
#>  7    15  787. 1922   1218. 1254.
#>  8    16  870. 2031.  1331. 1365.
#>  9    17  925. 2218.  1443. 1478.
#> 10    18 1014. 2329.  1556. 1589.
#> # … with 76 more rows
long_lake_plottable

#> # A tibble: 51 x 10
#>    dataset     location param depth value     sd units zone       n n_detect
#>    <chr>       <chr>    <chr> <dbl> <dbl>  <dbl> <chr> <chr>  <int>    <int>
#>  1 long_lake17 LL PC2   C/N       1  15.4 NA     NA    Unit 3     1        1
#>  2 long_lake17 LL PC2   C/N       6  15.8  0.290 NA    Unit 3     2        2
#>  3 long_lake17 LL PC2   C/N      11  24.0 NA     NA    Unit 2     1        1
#>  4 long_lake17 LL PC2   C/N      16  21.4 NA     NA    Unit 2     1        1
#>  5 long_lake17 LL PC2   C/N      21  23.2 NA     NA    Unit 2     1        1
#>  6 long_lake17 LL PC2   C/N      26  25.4 NA     NA    Unit 2     1        1
#>  7 long_lake17 LL PC2   C/N      43  27.2 NA     NA    Unit 2     1        1
#>  8 long_lake17 LL PC2   C/N      48  24.3 NA     NA    Unit 2     1        1
#>  9 long_lake17 LL PC2   C/N      53  30.2 NA     NA    Unit 2     1        1
#> 10 long_lake17 LL PC2   C/N      63  24.4 NA     NA    Unit 2     1        1
#> # … with 41 more rows
…
