Age-depth models • tidypaleo
…
…Or predict raw data:

predict(alta_lake_adm, depth = seq(-1, 10, 0.5))
#> # A tibble: 23 x 5
#>    depth   age age_min age_max method           
#>    <dbl> <dbl>   <dbl>   <dbl> <chr>            
#>  1  -1   2032.     NA      NA  extrapolate_above
#>  2  -0.5 2023.     NA      NA  extrapolate_above
#>  3   0   2015.   2015.   2015. interpolate      
#>  4   0.5 2011.     NA      NA  interpolate      
#>  5   1   2008    2008.   2008. interpolate      
#>  6   1.5 2003.   2003.   2004. interpolate      
#>  7   2   1998.   1997.   1999. interpolate      
#>  8   2.5 1990.     NA      NA  interpolate      
#>  9   3   1982.   1980.   1984. interpolate      
#> 10   3.5 1974.     NA      NA  interpolate      
#> # … with 13 more rows
…
