Stratigraphic diagrams • tidypaleo
…
Next, you will need to load the example data. This vignette uses 3 datasets that are already in the correct format for plotting. These are datasets in the tidypaleo package: alta_lake_geochem, keji_lakes_plottable, and halifax_lakes_plottable. These represent three common dataset types for which stratigraphic plots are created.

data("alta_lake_geochem")
data("keji_lakes_plottable")
data("halifax_lakes_plottable")

Geochemical stratigraphic plots

Geochemical stratigraphic plots include any kind of plot where each panel of the plot should be scaled to the minimum and maximum of the data. This includes (most) non-species abundance data. The example data, alta_lake_geochem, is a data frame in parameter-long (one row per measurement) form (you may need to use gather() to get your data into this form, which you can learn about in this tutorial). These measurements are from Alta Lake, British Columbia (Canada), and you can read more about them in the journal article.

alta_lake_geochem
#> # A tibble: 192 x 9
#>    location param depth   age value stdev units     n zone  
#>    <chr>    <chr> <dbl> <dbl> <dbl> <dbl> <chr> <int> <chr> 
#>  1 ALGC2    Cu     0.25 2015.  76   NA    ppm       1 Zone 3
#>  2 ALGC2    Cu     0.75 2011. 108.   4.50 ppm       3 Zone 3
#>  3 ALGC2    Cu     1.25 2008. 158   NA    ppm       1 Zone 3
#>  4 ALGC2    Cu     1.75 2003. 169   NA    ppm       1 Zone 3
#>  5 ALGC2    Cu     2.5  1998. 161   NA    ppm       1 Zone 3
#>  6 ALGC2    Cu     3.5  1982. 129   NA    ppm       1 Zone 3
#>  7 ALGC2    Cu     4.5  1966.  88.7  3.86 ppm       3 Zone 2
#>  8 ALGC2    Cu     5.5  1947.  65   NA    ppm       1 Zone 2
#>  9 ALGC2    Cu     6.5  1922.  62.3  9.53 ppm       3 Zone 2
#> 10 ALGC2    Cu     7.5  1896.  48   NA    ppm       1 Zone 2
#> # … with 182 more rows
…
Multiple cores

So far we’ve plotted one core. That’s great, but often there is more than one core that needs to be plotted. There are two ways to go about this depending on how you would like identical parameters for each lake to be compared: using facet_geochem_gridh() will stretch the axis limits to fit values from both cores, and creating (and combining) two separate plots using patchwork::wrap_plots() will result in each panel stretching to the min/max of the data for that parameter. We’ll illustrate both of these using some other data from Long Lake, Nova Scotia, that is contained in the mudata2 package.

library(mudata2)
combined_data <- long_lake %>%
  tbl_data() %>%
  bind_rows(alta_lake_geochem) %>%
  filter(param %in% c("C/N", "d13C", "d15N"))

combined_data
#> # A tibble: 147 x 14
#>    dataset location param depth value     sd units zone      n n_detect
#>    <chr>   <chr>    <chr> <dbl> <dbl>  <dbl> <chr> <chr> <int>    <int>
#>  1 long_l… LL PC2   C/N       1  15.4 NA     <NA>  Unit…     1        1
#>  2 long_l… LL PC2   C/N       6  15.8  0.290 <NA>  Unit…     2        2
#>  3 long_l… LL PC2   C/N      11  24.0 NA     <NA>  Unit…     1        1
#>  4 long_l… LL PC2   C/N      16  21.4 NA     <NA>  Unit…     1        1
#>  5 long_l… LL PC2   C/N      21  23.2 NA     <NA>  Unit…     1        1
#>  6 long_l… LL PC2   C/N      26  25.4 NA     <NA>  Unit…     1        1
#>  7 long_l… LL PC2   C/N      43  27.2 NA     <NA>  Unit…     1        1
#>  8 long_l… LL PC2   C/N      48  24.3 NA     <NA>  Unit…     1        1
#>  9 long_l… LL PC2   C/N      53  30.2 NA     <NA>  Unit…     1        1
#> 10 long_l… LL PC2   C/N      63  24.4 NA     <NA>  Unit…     1        1
#> # … with 137 more rows, and 4 more variables: min_value <dbl>, max_value <dbl>,
#> #   age <dbl>, stdev <dbl>
…
Species abundance stratigraphic plots

If our data is relative species abundance, there are a few more restrictions on the plot: each facet must represent values such that 10% abundance on one facet is equal to 10% in another facet, and facet names are often long enough that they must be rotated. The sample data for these exercises is keji_lakes_plottable, which again is in the form of one row per measurement. This dataset contains two lakes, Beaverskin Lake and Peskawa Lake, both located within Keji National Park, Nova Scotia, Canada (Ginn et al. 2007).

data("keji_lakes_plottable")
keji_lakes_plottable
#> # A tibble: 202 x 5
#>    location        depth taxon                                   count rel_abund
#>    <chr>           <dbl> <fct>                                   <dbl>     <dbl>
#>  1 Beaverskin Lake 0.125 Asterionella ralfsii var. americana (l…     0      0   
#>  2 Beaverskin Lake 0.125 Aulacoseira distans                         7      3.02
#>  3 Beaverskin Lake 0.125 Aulacoseira lirata                          4      1.72
#>  4 Beaverskin Lake 0.125 Cyclotella stelligera                       8      3.45
#>  5 Beaverskin Lake 0.125 Tabellaria flocculosa (strain III)          0      0   
#>  6 Beaverskin Lake 0.125 Other                                     213     91.8 
#>  7 Beaverskin Lake 0.375 Asterionella ralfsii var. americana (l…     0      0   
#>  8 Beaverskin Lake 0.375 Aulacoseira distans                         8      3.25
#>  9 Beaverskin Lake 0.375 Aulacoseira lirata                          5      2.03
#> 10 Beaverskin Lake 0.375 Cyclotella stelligera                      14      5.69
#> # … with 192 more rows
…
Top/bottom/spatial diagrams

So far we have looked at data that have depth as an axis. Another sample strategy includes collecting cores with a small number of samples in each (such as top/bottom, or sometimes just a surface sample). A sample dataset of this type was collected by Ginn et al. (2015) in lakes near Halifax, Nova Scotia. A subset of these measurements can be found in the halifax_lakes_plottable data frame.

data("halifax_lakes_plottable")
halifax_lakes_plottable
#> # A tibble: 114 x 5
#>    location      sample_type taxon                             count rel_abund
#>    <chr>         <chr>       <fct>                             <dbl>     <dbl>
#>  1 Anderson Lake bottom      Aulacoseira distans                26       4.65 
#>  2 Anderson Lake bottom      Eunotia exigua                     13.5     2.42 
#>  3 Anderson Lake bottom      Fragilariforma exigua               6.5     1.16 
#>  4 Anderson Lake bottom      Tabellaria fenestrata              23       4.11 
#>  5 Anderson Lake bottom      Tabellaria flocculosa (strain IV)  21       3.76 
#>  6 Anderson Lake bottom      Other                             469      83.9  
#>  7 Anderson Lake top         Aulacoseira distans                 8.5     1.87 
#>  8 Anderson Lake top         Eunotia exigua                      0       0    
#>  9 Anderson Lake top         Fragilariforma exigua               1.5     0.330
#> 10 Anderson Lake top         Tabellaria fenestrata              26       5.71 
#> # … with 104 more rows
…
